MPPEM
DUP
PUSHB[000]
1
SWAP
PUSHB[000]
10
DIV
FLOOR
MUL
DUP
ROLL
PUSHB[000]
99
MIN
SWAP
PUSHW[000]
640
MUL
SUB
PUSHW[000]
-1
MAX
ABS
SWAP
PUSHB[000]
10
MIN
NPUSHB
46
22
10
20
18
6
8
16
14
4
2
12
0 
19
0
0
8
10
2
8
4
6
0
64
1
12
20
22
14
20
16
18
12
25
22
18
14
12
20
16
10
6
2
0
8
4
24
SRP0
MDRP[11110]
ALIGNRP
MDRP[11101]
MDRP[11101]
ALIGNRP
ALIGNRP
MDRP[11110]
ALIGNRP
MDRP[11101]
MDRP[11101]
ALIGNRP
ALIGNRP
MDRP[11110]
SRP0
PUSHB[011]
77
0
5
61
JMPR
DUP
PUSHB[011]
70
1
2
54
JMPR
PUSHB[011]
64
3
7
48
JMPR
PUSHB[011]
58
1
10
42
JMPR
PUSHB[011]
52
2
2
36
JMPR
PUSHB[011]
46
4
6
30
JMPR
SRP0
DUP
PUSHB[011]
38
0
2
22
JMPR
DUP
PUSHB[011]
31
3
6
15
JMPR
PUSHB[011]
25
8
8
9
JMPR
DEPTH
MINDEX
POP
IF
NEG
JMPR
EIF
JMPR
DEPTH
CINDEX
DUP
ROLL
EQ
ROLL
ROLL
EQ
OR
ROLL
SWAP
IF
ALIGNRP
ELSE
POP
EIF
NEG
JMPR
SVTCA[0]
MDAP[1]
ALIGNRP
MDRP[11101]
ALIGNRP
ALIGNRP
ALIGNRP
MDRP[11101]
ALIGNRP
ALIGNRP
ALIGNRP
MDRP[11101]
ALIGNRP
IUP[1]
IUP[0]
